<?xml version="1.0" encoding="UTF-8"?>
<!DOCTYPE svg PUBLIC "-//W3C//DTD SVG 1.1//EN" "http://www.w3.org/Graphics/SVG/1.1/DTD/svg11.dtd">
<!-- Creator: CorelDRAW 2019 (64-Bit) -->
<svg xmlns="http://www.w3.org/2000/svg" xml:space="preserve" width="0.166661in" height="0.166661in" version="1.1" style="shape-rendering:geometricPrecision; text-rendering:geometricPrecision; image-rendering:optimizeQuality; fill-rule:evenodd; clip-rule:evenodd"
viewBox="0 0 166.66 166.66"
 xmlns:xlink="http://www.w3.org/1999/xlink">
 <defs>
  <style type="text/css">
   <![CDATA[
    .fil0 {fill:#FEFEFE}
    .fil1 {fill:#BDBFC1;fill-rule:nonzero}
    .fil2 {fill:#74DDFF;fill-rule:nonzero}
   ]]>
  </style>
 </defs>
 <g id="Layer_x0020_1">
  <metadata id="CorelCorpID_0Corel-Layer"/>
  <g id="_3057282929904">
   <path class="fil0" d="M83.33 164.2c44.66,0 80.87,-36.21 80.87,-80.87 0,-44.66 -36.21,-80.87 -80.87,-80.87 -44.66,0 -80.87,36.21 -80.87,80.87 0,44.66 36.21,80.87 80.87,80.87z"/>
   <path class="fil1" d="M83.33 161.74c21.65,0 41.26,-8.78 55.44,-22.96 14.19,-14.19 22.96,-33.79 22.96,-55.44 0,-21.65 -8.78,-41.26 -22.96,-55.44 -14.19,-14.19 -33.79,-22.96 -55.44,-22.96 -21.65,0 -41.26,8.78 -55.44,22.96 -14.19,14.19 -22.96,33.79 -22.96,55.44 0,21.65 8.78,41.26 22.96,55.44 14.19,14.19 33.79,22.96 55.44,22.96zm58.93 -19.48c-15.08,15.08 -35.91,24.41 -58.93,24.41 -23.01,0 -43.85,-9.33 -58.93,-24.41 -15.08,-15.08 -24.41,-35.91 -24.41,-58.93 0,-23.01 9.33,-43.85 24.41,-58.93 15.08,-15.08 35.91,-24.41 58.93,-24.41 23.01,0 43.85,9.33 58.93,24.41 15.08,15.08 24.41,35.91 24.41,58.93 0,23.01 -9.33,43.85 -24.41,58.93z"/>
   <path class="fil2" d="M73.48 22.03c0,-5.44 4.41,-9.85 9.85,-9.85 5.44,0 9.85,4.41 9.85,9.85l0 51.45 51.45 0c5.44,0 9.85,4.41 9.85,9.85 0,5.44 -4.41,9.85 -9.85,9.85l-51.45 0 0 51.45c0,5.44 -4.41,9.85 -9.85,9.85 -5.44,0 -9.85,-4.41 -9.85,-9.85l0 -51.45 -51.45 0c-5.44,0 -9.85,-4.41 -9.85,-9.85 0,-5.44 4.41,-9.85 9.85,-9.85l51.45 0 0 -51.45z"/>
  </g>
 </g>
</svg>
