<?xml version="1.0" encoding="UTF-8"?>
<!DOCTYPE svg PUBLIC "-//W3C//DTD SVG 1.1//EN" "http://www.w3.org/Graphics/SVG/1.1/DTD/svg11.dtd">
<!-- Creator: CorelDRAW 2019 (64-Bit) -->
<svg xmlns="http://www.w3.org/2000/svg" xml:space="preserve" width="0.145827in" height="0.166661in" version="1.1" style="shape-rendering:geometricPrecision; text-rendering:geometricPrecision; image-rendering:optimizeQuality; fill-rule:evenodd; clip-rule:evenodd"
viewBox="0 0 145.83 166.66"
 xmlns:xlink="http://www.w3.org/1999/xlink">
 <defs>
  <style type="text/css">
   <![CDATA[
    .fil0 {fill:#74DDFF}
   ]]>
  </style>
 </defs>
 <g id="Layer_x0020_1">
  <metadata id="CorelCorpID_0Corel-Layer"/>
  <path class="fil0" d="M140.2 10.42l-39.06 0 -3.06 -6.09c-1.32,-2.65 -4.03,-4.33 -7,-4.33 0,0 -0,0 -0,0l-37.2 0c-0.01,0 -0.02,0 -0.03,0 -2.95,0 -5.64,1.68 -6.93,4.33l-3.06 6.09 -39.06 0c-2.88,0 -5.21,2.33 -5.21,5.21l0 10.41c0,2.88 2.33,5.21 5.21,5.21l135.41 0c2.88,0 5.21,-2.33 5.21,-5.21l0 -10.41c0,-2.88 -2.33,-5.21 -5.21,-5.21zm-123.3 141.6c0.52,8.23 7.35,14.65 15.59,14.65l80.01 0c8.25,0 15.08,-6.42 15.59,-14.65l6.9 -110.35 -124.99 0 6.9 110.35z"/>
 </g>
</svg>
