<svg xmlns="http://www.w3.org/2000/svg" width="16.866" height="12.577" viewBox="0 0 16.866 12.577">
  <path id="Path_131" data-name="Path 131" d="M1974.012,97.6l-5.484-5.48a.847.847,0,0,1,0-1.193l1.193-1.193a.847.847,0,0,1,1.193,0l3.694,3.69,7.909-7.905a.836.836,0,0,1,1.189,0l1.2,1.193a.842.842,0,0,1,0,1.19l-9.7,9.7a.841.841,0,0,1-1.193,0Z" transform="translate(-1968.282 -85.266)" fill="#20b1ea" fill-rule="evenodd"/>
</svg>
