<?xml version="1.0" encoding="UTF-8"?>
<!DOCTYPE svg PUBLIC "-//W3C//DTD SVG 1.1//EN" "http://www.w3.org/Graphics/SVG/1.1/DTD/svg11.dtd">
<!-- Creator: CorelDRAW 2019 (64-Bit) -->
<svg xmlns="http://www.w3.org/2000/svg" xml:space="preserve" width="0.367874in" height="0.31563in" version="1.1" style="shape-rendering:geometricPrecision; text-rendering:geometricPrecision; image-rendering:optimizeQuality; fill-rule:evenodd; clip-rule:evenodd"
viewBox="0 0 367.87 315.63"
 xmlns:xlink="http://www.w3.org/1999/xlink">
 <defs>
  <style type="text/css">
   <![CDATA[
    .fil0 {fill:#FEFEFE;fill-opacity:0.811765}
   ]]>
  </style>
 </defs>
 <g id="Layer_x0020_1">
  <metadata id="CorelCorpID_0Corel-Layer"/>
  <path class="fil0" d="M-2.73 2.18l367.88 0 0 315.64 -367.88 0 0 -315.64zm222.46 178.59c0,5.56 -0.95,10.65 -2.85,15.31 -1.93,4.66 -4.59,8.7 -7.97,12.09 -3.37,3.39 -7.42,6.02 -12.1,7.89 -4.68,1.89 -9.76,2.81 -15.21,2.81 -6.09,0 -11.55,-1.19 -16.37,-3.57 -4.82,-2.36 -8.92,-5.8 -12.27,-10.27 -3.35,-4.47 -5.89,-9.94 -7.65,-16.39 -1.76,-6.45 -2.63,-13.74 -2.63,-21.84 0,-9.89 1.18,-18.86 3.52,-26.94 2.33,-8.07 5.66,-14.98 9.99,-20.73 4.3,-5.74 9.5,-10.16 15.59,-13.31 6.09,-3.11 12.88,-4.69 20.39,-4.69 8.34,0 15.07,1.11 20.12,3.28l0 12.3c-6.23,-3.04 -12.85,-4.52 -19.78,-4.52 -5.43,0 -10.31,1.14 -14.64,3.41 -4.33,2.28 -8.06,5.47 -11.18,9.65 -3.09,4.15 -5.48,9.16 -7.13,15.04 -1.68,5.88 -2.51,12.41 -2.51,19.59l0.35 0c5.57,-9.46 14.81,-14.2 27.66,-14.2 5.31,0 10.07,0.84 14.35,2.55 4.24,1.68 7.88,4.09 10.89,7.18 3.03,3.09 5.37,6.78 6.98,11.08 1.65,4.28 2.45,9.05 2.45,14.28zm-14.2 1.65c0,-3.96 -0.55,-7.53 -1.62,-10.7 -1.06,-3.17 -2.59,-5.88 -4.59,-8.1 -2.02,-2.22 -4.48,-3.93 -7.42,-5.12 -2.92,-1.19 -6.26,-1.79 -9.96,-1.79 -3.46,0 -6.64,0.63 -9.56,1.84 -2.94,1.22 -5.48,2.87 -7.62,4.96 -2.14,2.09 -3.81,4.52 -5.02,7.29 -1.21,2.79 -1.82,5.74 -1.82,8.86 0,3.9 0.58,7.59 1.76,11 1.19,3.42 2.86,6.4 5,8.92 2.14,2.55 4.71,4.55 7.65,5.99 2.97,1.46 6.23,2.19 9.85,2.19 3.49,0 6.69,-0.62 9.56,-1.87 2.89,-1.25 5.34,-2.98 7.36,-5.2 2.05,-2.22 3.61,-4.88 4.74,-7.96 1.13,-3.09 1.7,-6.53 1.7,-10.3z"/>
 </g>
</svg>
