<?xml version="1.0" encoding="UTF-8"?>
<!DOCTYPE svg PUBLIC "-//W3C//DTD SVG 1.1//EN" "http://www.w3.org/Graphics/SVG/1.1/DTD/svg11.dtd">
<!-- Creator: CorelDRAW 2019 (64-Bit) -->
<svg xmlns="http://www.w3.org/2000/svg" xml:space="preserve" width="0.367874in" height="0.31563in" version="1.1" style="shape-rendering:geometricPrecision; text-rendering:geometricPrecision; image-rendering:optimizeQuality; fill-rule:evenodd; clip-rule:evenodd"
viewBox="0 0 367.87 315.63"
 xmlns:xlink="http://www.w3.org/1999/xlink">
 <defs>
  <style type="text/css">
   <![CDATA[
    .fil0 {fill:#FEFEFE;fill-opacity:0.811765}
   ]]>
  </style>
 </defs>
 <g id="Layer_x0020_1">
  <metadata id="CorelCorpID_0Corel-Layer"/>
  <path class="fil0" d="M-2.74 2.19l367.89 0 0 315.63 -367.89 0 0 -315.63zm144.61 183.03c0,-3.01 0.49,-6.04 1.5,-9.07 1.04,-3.06 2.48,-5.91 4.36,-8.54 1.91,-2.65 4.24,-5.07 7.02,-7.23 2.8,-2.17 5.98,-3.87 9.53,-5.15 -5.26,-2.76 -9.41,-6.29 -12.53,-10.59 -3.09,-4.33 -4.65,-9.11 -4.65,-14.33 0,-4.2 0.86,-8.05 2.59,-11.6 1.7,-3.55 4.1,-6.61 7.13,-9.21 3.06,-2.6 6.67,-4.61 10.83,-6.07 4.19,-1.46 8.69,-2.19 13.54,-2.19 4.91,0 9.44,0.76 13.63,2.22 4.16,1.49 7.77,3.52 10.83,6.12 3.04,2.6 5.4,5.67 7.1,9.22 1.68,3.55 2.54,7.37 2.54,11.52 0,5.23 -1.56,10 -4.65,14.33 -3.11,4.31 -7.22,7.83 -12.36,10.59 3.5,1.28 6.61,2.98 9.39,5.15 2.77,2.17 5.08,4.58 6.99,7.23 1.87,2.63 3.32,5.48 4.36,8.54 1.01,3.03 1.5,6.07 1.5,9.07 0,4.99 -0.95,9.54 -2.86,13.66 -1.94,4.12 -4.62,7.67 -8.09,10.59 -3.46,2.96 -7.62,5.23 -12.44,6.89 -4.82,1.63 -10.13,2.44 -15.94,2.44 -5.74,0 -11.03,-0.81 -15.82,-2.44 -4.8,-1.65 -8.92,-3.93 -12.44,-6.89 -3.5,-2.93 -6.21,-6.48 -8.14,-10.59 -1.96,-4.12 -2.92,-8.67 -2.92,-13.66zm15.04 -1.11c0,3.55 0.58,6.75 1.73,9.62 1.15,2.84 2.8,5.28 4.91,7.29 2.11,2 4.68,3.55 7.71,4.63 3,1.11 6.35,1.65 10.02,1.65 3.55,0 6.81,-0.57 9.81,-1.68 2.98,-1.11 5.57,-2.68 7.74,-4.69 2.17,-2 3.87,-4.44 5.08,-7.29 1.21,-2.87 1.82,-6.04 1.82,-9.54 0,-3.17 -0.58,-6.15 -1.73,-8.94 -1.19,-2.76 -2.83,-5.2 -4.97,-7.34 -2.13,-2.11 -4.7,-3.77 -7.68,-4.99 -3,-1.22 -6.35,-1.81 -10.07,-1.81 -3.5,0 -6.73,0.57 -9.7,1.71 -2.95,1.14 -5.52,2.71 -7.68,4.74 -2.17,2.06 -3.87,4.47 -5.11,7.31 -1.24,2.82 -1.87,5.94 -1.87,9.32zm4.33 -52.79c0,2.69 0.52,5.2 1.56,7.51 1.04,2.3 2.48,4.31 4.3,6.02 1.85,1.73 3.96,3.09 6.38,4.06 2.43,0.98 5.02,1.46 7.8,1.46 2.77,0 5.37,-0.52 7.82,-1.52 2.45,-1 4.59,-2.36 6.38,-4.09 1.82,-1.7 3.23,-3.71 4.33,-6.02 1.07,-2.3 1.59,-4.77 1.59,-7.43 0,-2.76 -0.52,-5.28 -1.56,-7.61 -1.04,-2.33 -2.46,-4.36 -4.28,-6.04 -1.79,-1.7 -3.93,-3.03 -6.38,-4.01 -2.45,-0.98 -5.08,-1.46 -7.91,-1.46 -3,0 -5.72,0.49 -8.17,1.49 -2.45,1.03 -4.56,2.38 -6.35,4.09 -1.76,1.73 -3.12,3.77 -4.1,6.07 -0.95,2.33 -1.42,4.82 -1.42,7.48z"/>
 </g>
</svg>
